<?xml version="1.0" encoding="UTF-8" standalone="no"?>
<!-- Created with Inkscape (http://www.inkscape.org/) -->

<svg
   xmlns:dc="http://purl.org/dc/elements/1.1/"
   xmlns:cc="http://creativecommons.org/ns#"
   xmlns:rdf="http://www.w3.org/1999/02/22-rdf-syntax-ns#"
   xmlns:svg="http://www.w3.org/2000/svg"
   xmlns="http://www.w3.org/2000/svg"
   xmlns:sodipodi="http://sodipodi.sourceforge.net/DTD/sodipodi-0.dtd"
   xmlns:inkscape="http://www.inkscape.org/namespaces/inkscape"
   width="210mm"
   height="297mm"
   viewBox="0 0 210 297"
   version="1.1"
   id="svg8"
   inkscape:version="0.92.4 (5da689c313, 2019-01-14)"
   sodipodi:docname="iuviafirm.svg">
  <defs
     id="defs2" />
  <sodipodi:namedview
     id="base"
     pagecolor="#ffffff"
     bordercolor="#666666"
     borderopacity="1.0"
     inkscape:pageopacity="0.0"
     inkscape:pageshadow="2"
     inkscape:zoom="0.175"
     inkscape:cx="1076.6246"
     inkscape:cy="871.37537"
     inkscape:document-units="mm"
     inkscape:current-layer="layer1"
     showgrid="false"
     inkscape:window-width="1366"
     inkscape:window-height="704"
     inkscape:window-x="0"
     inkscape:window-y="27"
     inkscape:window-maximized="1" />
  <metadata
     id="metadata5">
    <rdf:RDF>
      <cc:Work
         rdf:about="">
        <dc:format>image/svg+xml</dc:format>
        <dc:type
           rdf:resource="http://purl.org/dc/dcmitype/StillImage" />
        <dc:title></dc:title>
      </cc:Work>
    </rdf:RDF>
  </metadata>
  <g
     inkscape:label="Layer 1"
     inkscape:groupmode="layer"
     id="layer1">
    <rect
       style="opacity:1;fill:#ffffff;stroke:none;stroke-width:7.76499987;stroke-linecap:square;stroke-miterlimit:4;stroke-dasharray:none;stroke-dashoffset:0;stroke-opacity:1"
       id="rect953"
       width="200"
       height="200"
       x="4.5357146"
       y="18.053572"
       inkscape:export-xdpi="150"
       inkscape:export-ydpi="150" />
    <g
       id="g996"
       transform="translate(-1.3434646,-3.557367)"
       inkscape:export-xdpi="150"
       inkscape:export-ydpi="150">
      <g
         transform="matrix(0.26458333,0,0,0.26458333,42.021121,57.80684)"
         id="g870">
        <g
           id="g819">
	<path
   style="fill:#3dbfc1"
   inkscape:connector-curvature="0"
   class="st0"
   d="M 402.7,482.36 H 79.66 C 35.74,482.36 0,446.63 0,402.7 V 79.66 C 0,35.73 35.74,0 79.66,0 h 323.05 c 43.91,0 79.65,35.73 79.65,79.66 V 402.7 c 0,43.92 -35.74,79.66 -79.66,79.66 z M 79.66,26.55 c -29.28,0 -53.1,23.82 -53.1,53.1 V 402.7 c 0,29.28 23.82,53.1 53.1,53.1 h 323.05 c 29.28,0 53.1,-23.82 53.1,-53.1 V 79.66 c 0,-29.28 -23.82,-53.1 -53.1,-53.1 H 79.66 Z"
   id="path817" />

</g>
        <g
           id="g845">
	<g
   id="g823">
		<path
   style="fill:#3dbfc1"
   inkscape:connector-curvature="0"
   class="st0"
   d="m 181.44,204.14 c -9.78,0 -17.7,-7.93 -17.7,-17.7 V 96.87 c 0,-9.78 7.93,-17.7 17.7,-17.7 9.78,0 17.7,7.93 17.7,17.7 v 89.57 c 0,9.77 -7.92,17.7 -17.7,17.7 z"
   id="path821" />

	</g>

	<g
   id="g827">
		<path
   style="fill:#3dbfc1"
   inkscape:connector-curvature="0"
   class="st0"
   d="m 181.44,313.27 c -9.78,0 -17.7,-7.93 -17.7,-17.7 v -49.65 c 0,-9.78 7.93,-17.7 17.7,-17.7 9.78,0 17.7,7.93 17.7,17.7 v 49.65 c 0,9.77 -7.92,17.7 -17.7,17.7 z"
   id="path825" />

	</g>

	<g
   id="g831">
		<path
   style="fill:#3dbfc1"
   inkscape:connector-curvature="0"
   class="st0"
   d="m 181.44,379.38 c -9.78,0 -17.7,-7.93 -17.7,-17.7 v -11.02 c 0,-9.78 7.93,-17.7 17.7,-17.7 9.78,0 17.7,7.93 17.7,17.7 v 11.02 c 0,9.77 -7.92,17.7 -17.7,17.7 z"
   id="path829" />

	</g>

	<g
   id="g835">
		<path
   style="fill:#3dbfc1"
   inkscape:connector-curvature="0"
   class="st0"
   d="m 300.92,226.27 c -9.78,0 -17.7,-7.93 -17.7,-17.7 V 119 c 0,-9.78 7.93,-17.7 17.7,-17.7 9.78,0 17.7,7.93 17.7,17.7 v 89.57 c 0,9.77 -7.92,17.7 -17.7,17.7 z"
   id="path833" />

	</g>

	<g
   id="g839">
		<path
   style="fill:#3dbfc1"
   inkscape:connector-curvature="0"
   class="st0"
   d="m 300.92,335.39 c -9.78,0 -17.7,-7.93 -17.7,-17.7 v -49.65 c 0,-9.78 7.93,-17.7 17.7,-17.7 9.78,0 17.7,7.93 17.7,17.7 v 49.65 c 0,9.78 -7.92,17.7 -17.7,17.7 z"
   id="path837" />

	</g>

	<g
   id="g843">
		<path
   style="fill:#3dbfc1"
   inkscape:connector-curvature="0"
   class="st0"
   d="m 300.92,401.51 c -9.78,0 -17.7,-7.93 -17.7,-17.7 v -11.02 c 0,-9.78 7.93,-17.7 17.7,-17.7 9.78,0 17.7,7.93 17.7,17.7 v 11.02 c 0,9.77 -7.92,17.7 -17.7,17.7 z"
   id="path841" />

	</g>

</g>
      </g>
      <path
         inkscape:connector-curvature="0"
         id="path872"
         d="m 66.901784,60.859375 c 0,-21.544643 0,-22.300597 0,-22.300597"
         style="fill:none;stroke:#3dbfc1;stroke-width:7.76499987;stroke-linecap:square;stroke-linejoin:miter;stroke-miterlimit:4;stroke-dasharray:none;stroke-opacity:1" />
      <path
         style="fill:none;stroke:#3dbfc1;stroke-width:7.76499987;stroke-linecap:square;stroke-linejoin:miter;stroke-miterlimit:4;stroke-dasharray:none;stroke-opacity:1"
         d="m 143.25297,60.859375 c 0,-21.544643 0,-22.300597 0,-22.300597"
         id="path874"
         inkscape:connector-curvature="0" />
      <path
         style="fill:none;stroke:#3dbfc1;stroke-width:7.76499987;stroke-linecap:square;stroke-linejoin:miter;stroke-miterlimit:4;stroke-dasharray:none;stroke-opacity:1"
         d="m 82.172017,60.859375 c 0,-21.544643 0,-22.300597 0,-22.300597"
         id="path876"
         inkscape:connector-curvature="0" />
      <path
         inkscape:connector-curvature="0"
         id="path878"
         d="m 97.442259,60.859375 c 0,-21.544643 0,-22.300597 0,-22.300597"
         style="fill:none;stroke:#3dbfc1;stroke-width:7.76499987;stroke-linecap:square;stroke-linejoin:miter;stroke-miterlimit:4;stroke-dasharray:none;stroke-opacity:1" />
      <path
         style="fill:none;stroke:#3dbfc1;stroke-width:7.76499987;stroke-linecap:square;stroke-linejoin:miter;stroke-miterlimit:4;stroke-dasharray:none;stroke-opacity:1"
         d="m 112.7125,60.859375 c 0,-21.544643 0,-22.300597 0,-22.300597"
         id="path880"
         inkscape:connector-curvature="0" />
      <path
         inkscape:connector-curvature="0"
         id="path882"
         d="m 127.98273,60.859375 c 0,-21.544643 0,-22.300597 0,-22.300597"
         style="fill:none;stroke:#3dbfc1;stroke-width:7.76499987;stroke-linecap:square;stroke-linejoin:miter;stroke-miterlimit:4;stroke-dasharray:none;stroke-opacity:1" />
      <path
         style="fill:none;stroke:#3dbfc1;stroke-width:7.76499987;stroke-linecap:square;stroke-linejoin:miter;stroke-miterlimit:4;stroke-dasharray:none;stroke-opacity:1"
         d="m 66.901784,204.6631 c 0,-21.54464 0,-22.30059 0,-22.30059"
         id="path884"
         inkscape:connector-curvature="0" />
      <path
         inkscape:connector-curvature="0"
         id="path886"
         d="m 143.25297,204.6631 c 0,-21.54464 0,-22.30059 0,-22.30059"
         style="fill:none;stroke:#3dbfc1;stroke-width:7.76499987;stroke-linecap:square;stroke-linejoin:miter;stroke-miterlimit:4;stroke-dasharray:none;stroke-opacity:1" />
      <path
         inkscape:connector-curvature="0"
         id="path888"
         d="m 82.172017,204.6631 c 0,-21.54464 0,-22.30059 0,-22.30059"
         style="fill:none;stroke:#3dbfc1;stroke-width:7.76499987;stroke-linecap:square;stroke-linejoin:miter;stroke-miterlimit:4;stroke-dasharray:none;stroke-opacity:1" />
      <path
         style="fill:none;stroke:#3dbfc1;stroke-width:7.76499987;stroke-linecap:square;stroke-linejoin:miter;stroke-miterlimit:4;stroke-dasharray:none;stroke-opacity:1"
         d="m 97.442259,204.6631 c 0,-21.54464 0,-22.30059 0,-22.30059"
         id="path890"
         inkscape:connector-curvature="0" />
      <path
         inkscape:connector-curvature="0"
         id="path892"
         d="m 112.7125,204.6631 c 0,-21.54464 0,-22.30059 0,-22.30059"
         style="fill:none;stroke:#3dbfc1;stroke-width:7.76499987;stroke-linecap:square;stroke-linejoin:miter;stroke-miterlimit:4;stroke-dasharray:none;stroke-opacity:1" />
      <path
         style="fill:none;stroke:#3dbfc1;stroke-width:7.76499987;stroke-linecap:square;stroke-linejoin:miter;stroke-miterlimit:4;stroke-dasharray:none;stroke-opacity:1"
         d="m 127.98273,204.6631 c 0,-21.54464 0,-22.30059 0,-22.30059"
         id="path894"
         inkscape:connector-curvature="0" />
      <g
         transform="rotate(-90,105.21101,120.94277)"
         id="g932">
        <path
           inkscape:connector-curvature="0"
           id="path896"
           d="m 66.901784,60.859375 c 0,-21.544643 0,-22.300597 0,-22.300597"
           style="fill:none;stroke:#3dbfc1;stroke-width:7.76499987;stroke-linecap:square;stroke-linejoin:miter;stroke-miterlimit:4;stroke-dasharray:none;stroke-opacity:1" />
        <path
           style="fill:none;stroke:#3dbfc1;stroke-width:7.76499987;stroke-linecap:square;stroke-linejoin:miter;stroke-miterlimit:4;stroke-dasharray:none;stroke-opacity:1"
           d="m 143.25297,60.859375 c 0,-21.544643 0,-22.300597 0,-22.300597"
           id="path898"
           inkscape:connector-curvature="0" />
        <path
           style="fill:none;stroke:#3dbfc1;stroke-width:7.76499987;stroke-linecap:square;stroke-linejoin:miter;stroke-miterlimit:4;stroke-dasharray:none;stroke-opacity:1"
           d="m 82.172017,60.859375 c 0,-21.544643 0,-22.300597 0,-22.300597"
           id="path900"
           inkscape:connector-curvature="0" />
        <path
           inkscape:connector-curvature="0"
           id="path902"
           d="m 97.442259,60.859375 c 0,-21.544643 0,-22.300597 0,-22.300597"
           style="fill:none;stroke:#3dbfc1;stroke-width:7.76499987;stroke-linecap:square;stroke-linejoin:miter;stroke-miterlimit:4;stroke-dasharray:none;stroke-opacity:1" />
        <path
           style="fill:none;stroke:#3dbfc1;stroke-width:7.76499987;stroke-linecap:square;stroke-linejoin:miter;stroke-miterlimit:4;stroke-dasharray:none;stroke-opacity:1"
           d="m 112.7125,60.859375 c 0,-21.544643 0,-22.300597 0,-22.300597"
           id="path904"
           inkscape:connector-curvature="0" />
        <path
           inkscape:connector-curvature="0"
           id="path906"
           d="m 127.98273,60.859375 c 0,-21.544643 0,-22.300597 0,-22.300597"
           style="fill:none;stroke:#3dbfc1;stroke-width:7.76499987;stroke-linecap:square;stroke-linejoin:miter;stroke-miterlimit:4;stroke-dasharray:none;stroke-opacity:1" />
        <path
           style="fill:none;stroke:#3dbfc1;stroke-width:7.76499987;stroke-linecap:square;stroke-linejoin:miter;stroke-miterlimit:4;stroke-dasharray:none;stroke-opacity:1"
           d="m 66.901784,204.6631 c 0,-21.54464 0,-22.30059 0,-22.30059"
           id="path908"
           inkscape:connector-curvature="0" />
        <path
           inkscape:connector-curvature="0"
           id="path910"
           d="m 143.25297,204.6631 c 0,-21.54464 0,-22.30059 0,-22.30059"
           style="fill:none;stroke:#3dbfc1;stroke-width:7.76499987;stroke-linecap:square;stroke-linejoin:miter;stroke-miterlimit:4;stroke-dasharray:none;stroke-opacity:1" />
        <path
           inkscape:connector-curvature="0"
           id="path912"
           d="m 82.172017,204.6631 c 0,-21.54464 0,-22.30059 0,-22.30059"
           style="fill:none;stroke:#3dbfc1;stroke-width:7.76499987;stroke-linecap:square;stroke-linejoin:miter;stroke-miterlimit:4;stroke-dasharray:none;stroke-opacity:1" />
        <path
           style="fill:none;stroke:#3dbfc1;stroke-width:7.76499987;stroke-linecap:square;stroke-linejoin:miter;stroke-miterlimit:4;stroke-dasharray:none;stroke-opacity:1"
           d="m 97.442259,204.6631 c 0,-21.54464 0,-22.30059 0,-22.30059"
           id="path914"
           inkscape:connector-curvature="0" />
        <path
           inkscape:connector-curvature="0"
           id="path916"
           d="m 112.7125,204.6631 c 0,-21.54464 0,-22.30059 0,-22.30059"
           style="fill:none;stroke:#3dbfc1;stroke-width:7.76499987;stroke-linecap:square;stroke-linejoin:miter;stroke-miterlimit:4;stroke-dasharray:none;stroke-opacity:1" />
        <path
           style="fill:none;stroke:#3dbfc1;stroke-width:7.76499987;stroke-linecap:square;stroke-linejoin:miter;stroke-miterlimit:4;stroke-dasharray:none;stroke-opacity:1"
           d="m 127.98273,204.6631 c 0,-21.54464 0,-22.30059 0,-22.30059"
           id="path918"
           inkscape:connector-curvature="0" />
      </g>
    </g>
    <rect
       style="opacity:1;fill:#ffffff;stroke:#3dbfc1;stroke-width:7.76499987;stroke-linecap:square;stroke-miterlimit:4;stroke-dasharray:none;stroke-dashoffset:0;stroke-opacity:1"
       id="rect998"
       width="77.625862"
       height="61.590698"
       x="99.122604"
       y="120.99421"
       rx="3"
       ry="3" />
    <text
       xml:space="preserve"
       style="font-style:normal;font-variant:normal;font-weight:normal;font-stretch:normal;font-size:13.20738602px;line-height:1.25;font-family:'DejaVu Sans';-inkscape-font-specification:'DejaVu Sans';letter-spacing:0px;word-spacing:0px;fill:#3dbfc1;fill-opacity:1;stroke:#3dbfc1;stroke-width:0.26458332;stroke-opacity:1"
       x="105.5946"
       y="140.10114"
       id="text1002"
       transform="scale(0.99981883,1.0001812)"><tspan
         sodipodi:role="line"
         id="tspan1000"
         x="105.5946"
         y="140.10114"
         style="font-style:normal;font-variant:normal;font-weight:bold;font-stretch:normal;font-family:'DejaVu Sans';-inkscape-font-specification:'DejaVu Sans Bold';fill:#3dbfc1;fill-opacity:1;stroke:#3dbfc1;stroke-width:0.26458332;stroke-opacity:1">1010010</tspan><tspan
         sodipodi:role="line"
         x="105.5946"
         y="156.61037"
         style="font-style:normal;font-variant:normal;font-weight:bold;font-stretch:normal;font-family:'DejaVu Sans';-inkscape-font-specification:'DejaVu Sans Bold';fill:#3dbfc1;fill-opacity:1;stroke:#3dbfc1;stroke-width:0.26458332;stroke-opacity:1"
         id="tspan1004">1001001</tspan><tspan
         sodipodi:role="line"
         x="105.5946"
         y="173.1196"
         style="font-style:normal;font-variant:normal;font-weight:bold;font-stretch:normal;font-family:'DejaVu Sans';-inkscape-font-specification:'DejaVu Sans Bold';fill:#3dbfc1;fill-opacity:1;stroke:#3dbfc1;stroke-width:0.26458332;stroke-opacity:1"
         id="tspan1006">1001110</tspan></text>
  </g>
  <style
     id="style815"
     type="text/css">
	.st0{fill:#3DBFC1;}
</style>
</svg>
