<?xml version="1.0" encoding="UTF-8" standalone="no"?>
<!-- Created with Inkscape (http://www.inkscape.org/) -->

<svg
   xmlns:dc="http://purl.org/dc/elements/1.1/"
   xmlns:cc="http://creativecommons.org/ns#"
   xmlns:rdf="http://www.w3.org/1999/02/22-rdf-syntax-ns#"
   xmlns:svg="http://www.w3.org/2000/svg"
   xmlns="http://www.w3.org/2000/svg"
   xmlns:sodipodi="http://sodipodi.sourceforge.net/DTD/sodipodi-0.dtd"
   xmlns:inkscape="http://www.inkscape.org/namespaces/inkscape"
   width="210mm"
   height="297mm"
   viewBox="0 0 210 297"
   version="1.1"
   id="svg954"
   inkscape:version="0.92.4 (5da689c313, 2019-01-14)"
   sodipodi:docname="iuvia-logo.svg">
  <defs
     id="defs948" />
  <sodipodi:namedview
     id="base"
     pagecolor="#ffffff"
     bordercolor="#666666"
     borderopacity="1.0"
     inkscape:pageopacity="0.0"
     inkscape:pageshadow="2"
     inkscape:zoom="89.6"
     inkscape:cx="2.4415363"
     inkscape:cy="1123.9216"
     inkscape:document-units="mm"
     inkscape:current-layer="layer1"
     showgrid="false"
     inkscape:window-width="1920"
     inkscape:window-height="1009"
     inkscape:window-x="0"
     inkscape:window-y="34"
     inkscape:window-maximized="1" />
  <metadata
     id="metadata951">
    <rdf:RDF>
      <cc:Work
         rdf:about="">
        <dc:format>image/svg+xml</dc:format>
        <dc:type
           rdf:resource="http://purl.org/dc/dcmitype/StillImage" />
        <dc:title></dc:title>
      </cc:Work>
    </rdf:RDF>
  </metadata>
  <g
     inkscape:label="Layer 1"
     inkscape:groupmode="layer"
     id="layer1">
    <g
       transform="matrix(0.06693443,0,0,0.06693443,-7.1522368,-11.293951)"
       id="g74">
      <g
         id="g52">
        <g
           id="g42">
          <path
             inkscape:connector-curvature="0"
             class="st0"
             d="m 120.1,261.8 c -7.4,0 -13.1,-6 -13.1,-13.1 v -66.8 c 0,-7.4 6,-13.1 13.1,-13.1 7.4,0 13.1,5.8 13.1,13.1 v 66.8 c 0.3,7.1 -5.7,13.1 -13.1,13.1 z"
             id="path40" />
        </g>
        <g
           id="g46">
          <path
             inkscape:connector-curvature="0"
             class="st0"
             d="m 120.1,343.4 c -7.4,0 -13.1,-6 -13.1,-13.1 V 293 c 0,-7.4 6,-13.1 13.1,-13.1 7.4,0 13.1,6 13.1,13.1 v 37 c 0.3,7.4 -5.7,13.4 -13.1,13.4 z"
             id="path44" />
        </g>
        <g
           id="g50">
          <path
             inkscape:connector-curvature="0"
             class="st0"
             d="m 120.1,392.6 c -7.4,0 -13.1,-5.8 -13.1,-13.1 v -8.2 c 0,-7.4 6,-13.1 13.1,-13.1 7.4,0 13.1,6 13.1,13.1 v 8.2 c 0.3,7.3 -5.7,13.1 -13.1,13.1 z"
             id="path48" />
        </g>
      </g>
      <g
         id="g66">
        <g
           id="g56">
          <path
             inkscape:connector-curvature="0"
             class="st0"
             d="m 600.7,261.8 c -7.4,0 -13.1,-6 -13.1,-13.1 v -66.8 c 0,-7.4 6,-13.1 13.1,-13.1 7.4,0 13.1,5.8 13.1,13.1 v 66.8 c 0.1,7.1 -5.7,13.1 -13.1,13.1 z"
             id="path54" />
        </g>
        <g
           id="g60">
          <path
             inkscape:connector-curvature="0"
             class="st0"
             d="m 600.7,343.4 c -7.4,0 -13.1,-6 -13.1,-13.1 V 293 c 0,-7.4 6,-13.1 13.1,-13.1 7.4,0 13.1,6 13.1,13.1 v 37 c 0.1,7.4 -5.7,13.4 -13.1,13.4 z"
             id="path58" />
        </g>
        <g
           id="g64">
          <path
             inkscape:connector-curvature="0"
             class="st0"
             d="m 600.7,392.6 c -7.4,0 -13.1,-5.8 -13.1,-13.1 v -8.2 c 0,-7.4 6,-13.1 13.1,-13.1 7.4,0 13.1,6 13.1,13.1 v 8.2 c 0.1,7.3 -5.7,13.1 -13.1,13.1 z"
             id="path62" />
        </g>
      </g>
      <path
         inkscape:connector-curvature="0"
         class="st0"
         d="m 533.9,169.4 c -6.9,-2.7 -14.5,0.9 -16.9,7.8 L 454.3,344 391.7,177.1 c -2.7,-6.9 -10.2,-10.2 -16.9,-7.8 -6.9,2.5 -10.2,10.2 -7.8,16.9 l 74.2,197.6 c 2,5.3 6.9,8.7 12.5,8.7 0.2,0 0.4,0 0.9,0 0.2,0 0.4,0 0.9,0 5.3,0 10.5,-3.3 12.5,-8.7 l 74.2,-197.6 c 1.9,-6.6 -1.4,-14.2 -8.3,-16.8 z"
         id="path68" />
      <path
         inkscape:connector-curvature="0"
         class="st0"
         d="M 828.9,374.8 754.7,177.2 c -2,-5.6 -7.6,-8.9 -13.1,-8.5 -5.6,-0.4 -11.1,2.9 -13.1,8.5 l -74.2,197.6 c -2.7,6.9 0.9,14.5 7.8,16.9 1.6,0.7 3.1,0.9 4.7,0.9 5.3,0 10.5,-3.3 12.5,-8.7 L 741.8,217 804.4,383.9 c 2,5.3 6.9,8.7 12.5,8.7 1.6,0 3.1,-0.2 4.7,-0.9 6.4,-2.4 10,-10 7.3,-16.9 z"
         id="path70" />
      <path
         inkscape:connector-curvature="0"
         class="st0"
         d="m 325.8,181.8 c 0,-7.4 -6,-13.1 -13.1,-13.1 -7.1,0 -13.1,5.8 -13.1,13.1 v 133.7 c 0,0.7 0,1.3 0.2,2 -0.2,0.7 -0.2,1.3 -0.2,2 0,25.6 -21.6,46.6 -48.1,46.6 -0.2,0 -0.4,0 -0.7,0 -0.2,0 -0.4,0 -0.7,0 -26.5,0 -48.1,-20.9 -48.1,-46.6 0,-0.7 0,-1.3 -0.2,-2 0.2,-0.7 0.2,-1.3 0.2,-2 V 181.8 c 0,-7.4 -5.8,-13.1 -13.1,-13.1 -7.4,0 -13.1,5.8 -13.1,13.1 v 133.7 c 0,0.7 0.2,1.3 0.2,2 0,0.7 -0.2,1.3 -0.2,2 0,40.3 33.4,72.9 74.6,72.9 0.2,0 0.4,0 0.7,0 0.2,0 0.4,0 0.7,0 41,0 74.6,-32.8 74.6,-72.9 0,-0.7 -0.2,-1.3 -0.2,-2 0.2,-0.7 0.2,-1.3 0.2,-2 V 181.8 Z"
         id="path72" />
    </g>
  </g>
</svg>
